{
    "KPlugin": {
        "Category": "Accessibility",
        "Description": "Display a mouse cursor locating effect; activated with a keyboard shortcut",
        "Description[ar]": "اعرض تأثير تحديد موقع مؤشر الفأرة عند التنشيط، تفعّل باختصار لوحة المفاتيح",
        "Description[bg]": "Показва ефект на локализиране на показалеца на мишката, активиран с клавишна комбинация",
        "Description[ca@valencia]": "Mostra un efecte de posició del cursor del ratolí; activat amb una drecera de teclat",
        "Description[ca]": "Mostra un efecte de posició del cursor del ratolí; activat amb una drecera de teclat",
        "Description[da]": "Viser en markør lokaliseringseffekt når aktiveret; aktiveret med en tastaturgenvej",
        "Description[en_GB]": "Display a mouse cursor locating effect; activated with a keyboard shortcut",
        "Description[es]": "Muestra un efecto de localización del cursor del ratón; se activa con un atajo de teclado",
        "Description[eu]": "Bistaratu saguaren kurtsorea kokatzeko efektu bat; teklatuko lasterbide batekin aktibatua",
        "Description[fr]": "Afficher un effet indiquant la position du pointeur de la souris. Activé grâce à un raccourci clavier.",
        "Description[gl]": "Mostra un efecto de atopar o cursor do rato; actívase cun atallo de teclado.",
        "Description[he]": "הצגת אפקט איתור סמן עכבר, מופעל דרך צירוף מקשי מקלדת",
        "Description[ia]": "Monstra un effecto de location de mus; activate con un via breve de claviero",
        "Description[is]": "Sýna staðsetningaráhrif fyrir músarbendil; virkjað með flýtilykli",
        "Description[it]": "Visualizza un effetto di posizionamento del puntatore del mouse quando è attivato; attivato con una scorciatoia da tastiera",
        "Description[ka]": "აქტივაციისას თაგუნას კურსორის მდებარეობის ეფექტის ჩვენება. აქტიურდება კლავიატურის მალსახმობით",
        "Description[lt]": "Rodyti pelės žymeklio vietos nustatymo efektą; aktyvinama naudojant sparčiuosius klavišus",
        "Description[lv]": "Aktivizējot parāda peles kursora atrašanas efektu; aktivizē ar tastatūras saīsni",
        "Description[nl]": "Toont het effect van de positie van de muisaanwijzer; geactiveerd met een sneltoets",
        "Description[nn]": "Vis kor musepeikaren er – slått på/av med snøggtast",
        "Description[pl]": "Wyświetla efekt wskazujący położenie wskaźnika myszy; uruchamiane skrótem klawiszowym",
        "Description[sl]": "Prikaži učinek lociranja kazalca miške; aktivirano z bližnjico tipkovnice",
        "Description[sv]": "Visa en lokaliseringseffekt för muspekaren om aktiverad, aktiveras med en snabbtangent",
        "Description[tr]": "Etkinleştirildiğinde bir fare imleci bulma efekti görüntüle; klavye kısayoluyla etkinleştirilir",
        "Description[uk]": "Показ наближення вказівника миші; активується клавіатурним скороченням",
        "Description[x-test]": "xxDisplay a mouse cursor locating effect; activated with a keyboard shortcutxx",
        "Description[zh_CN]": "显示用于定位鼠标光标位置的特效；使用键盘快捷键激活",
        "Description[zh_TW]": "強調顯示滑鼠游標讓它比較容易被找到——需要用鍵盤快捷鍵觸發",
        "EnabledByDefault": false,
        "License": "GPL",
        "Name": "Track Mouse",
        "Name[ar]": "تتبع الفارة",
        "Name[az]": "Kursorun izi",
        "Name[be]": "Адсочванне мышы",
        "Name[bg]": "Проследяване на показалеца",
        "Name[ca@valencia]": "Seguiment del ratolí",
        "Name[ca]": "Seguiment del ratolí",
        "Name[cs]": "Sledování myši",
        "Name[da]": "Spor mus",
        "Name[de]": "Maus-Position finden",
        "Name[en_GB]": "Track Mouse",
        "Name[eo]": "Spurmuso",
        "Name[es]": "Seguimiento del ratón",
        "Name[et]": "Hiire jälgimine",
        "Name[eu]": "Saguaren jarraipena",
        "Name[fi]": "Hiiren jäljitys",
        "Name[fr]": "Suivi de la souris",
        "Name[gl]": "Seguir o rato",
        "Name[he]": "מעקב אחר עכבר",
        "Name[hu]": "Egérkövetés",
        "Name[ia]": "Tracia mus",
        "Name[id]": "Lacak mouse",
        "Name[is]": "Fylgja mús",
        "Name[it]": "Trova il mouse",
        "Name[ja]": "マウスを追跡",
        "Name[ka]": "თაგუნას დევნება",
        "Name[ko]": "마우스 추적",
        "Name[lt]": "Pelės sekimas",
        "Name[lv]": "Sekot pelei",
        "Name[nl]": "Muis volgen",
        "Name[nn]": "Følg musepeikaren",
        "Name[pl]": "Śledzenie myszy",
        "Name[pt]": "Seguir o Rato",
        "Name[pt_BR]": "Seguir o mouse",
        "Name[ro]": "Urmărește mausul",
        "Name[ru]": "Поиск курсора мыши на экране",
        "Name[sk]": "Sledovať myš",
        "Name[sl]": "Sledi miški",
        "Name[sv]": "Följ musen",
        "Name[ta]": "சுட்டியை கண்டுபிடி",
        "Name[tr]": "Fareyi İzle",
        "Name[uk]": "Сліди мишки",
        "Name[vi]": "Theo dõi chuột",
        "Name[x-test]": "xxTrack Mousexx",
        "Name[zh_CN]": "鼠标定位",
        "Name[zh_TW]": "滑鼠追蹤"
    },
    "X-KDE-ConfigModule": "kwin_trackmouse_config",
    "org.kde.kwin.effect": {
        "video": "https://files.kde.org/plasma/kwin/effect-videos/track_mouse.mp4"
    }
}
